// Jest Snapshot v1, https://goo.gl/fbAQLP

exports[`<Contact /> render without error 1`] = `
<div
  className="contact"
>
  <form
    onSubmit={[Function]}
  >
    <div>
      <label
        for="name"
      >
        Name : 
      </label>
      <input
        id="name"
        onChange={[Function]}
        placeholder="Name"
        type="text"
      />
    </div>
    <div>
      <label
        for="name"
      >
        Age : 
      </label>
      <input
        id="age"
        onChange={[Function]}
        placeholder="Age"
        step="1"
        type="number"
      />
    </div>
    <div>
      <button
        type="submit"
      >
         Save 
      </button>
    </div>
    <div>
       This is from Child 
    </div>
  </form>
</div>
`;
